x,y,diametro,color
543.4,165.0.0,53.240738,DB7654
420.0,200.0,79.08826,893D60
61.0,170.0,48.034935,D6241E
365.0,25.0,47.781254,F2AC2A
511.0,56.0,75.34689,3D71B7
183.0,89.0,48.790092,85749D
337.0,123.0,44.6762,21232E
349.0,243.0,69.994774,5FA25A
256.0,275.0,66.37216,5D8EB4
131.0,203.0,73.48547,8F8EFF
536.0,227.0,59.690582,FF1AFCE5
466.0,150.0,45.814983,FF624CE8
351.0,144.0,72.19725,FF9B1D0F
225.0,194.0,74.9277,FF3CB1DE
173.0,263.0,42.48568,FF07A2A7
352.0,315.0,75.58565,FFEFFB7B
269.0,117.0,51.20713,FFEED98C
148.0,138.0,71.6976,FFA09012
254.0,28.0,41.140923,FF4F8323
339.0,97.0,56.45737,FF9491FB
436.0,112.0,64.063446,FFBF0519
408.0,189.0,53.158905,FFB461F8
234.0,187.0,63.23948,FF5098CD
234.0,187.0,66.29521,FFBA44C0
234.0,187.0,44.0104,FF6A6D45
234.0,187.0,58.42091,FF438CA6
234.0,187.0,42.822414,FFDBD5D0
234.0,187.0,70.79707,FF26401D
234.0,187.0,78.20183,FF7BB60B
234.0,187.0,59.626427,FF5FF041
234.0,187.0,51.598537,FFFCE43F
234.0,187.0,64.72567,FF1E3C8F
234.0,187.0,41.682888,FF085FD0
234.0,187.0,43.77094,FFF512D7
234.0,187.0,42.59526,FF3CDF58
234.0,187.0,52.791504,FFB7CC64
234.0,187.0,54.81163,FF877483
234.0,187.0,72.37579,FF19D518
234.0,187.0,66.702515,FF1D90BA
234.0,187.0,69.09286,FF5191E1
234.0,187.0,65.52681,FF722EB7
234.0,187.0,42.921654,FFB00389
234.0,187.0,68.51598,FFC67EF4
311.0,196.0,44.019245,FF75AD4D
322.0,217.0,67.868164,FF44D3DD
420.0,261.0,45.948483,FF780E39
514.0,187.0,57.885933,FF145F38
520.0,137.0,57.524445,FFB21151
356.0,48.0,78.15529,FFB7ADF7
322.0,45.0,61.7282,FF62E30F
235.0,66.0,63.577793,FF80B932
137.0,112.0,47.675415,FF2E8E90
166.0,176.0,40.23153,FF4DDD57
271.0,209.0,70.41641,FFD7CD26
